{
  "apiVersion" : "4.0",
  "swaggerVersion" : "1.2",
  "basePath" : "http://localhost:7777/com.tibco.ing.customerrequestapi.module",
  "apis" : [ {
    "path" : "/CreateCustomer",
    "description" : "Summary about the new REST service."
  } ],
  "authorizations" : { }
}